Evaluating model fit
…
PPMC: χ2 summary statistic

For each replication, calculate a χ2rep statistic

#> # A tibble: 22 × 4
#>    .draw score replication_n expected
#>    <int> <int>         <int>    <dbl>
#>  1    13     1             2     1.82
#>  2    13     2             6     4.59
#>  3    13     3            18    10.3 
#>  4    13     4             9    17.3 
#>  5    13     5            19    23.1 
#>  6    13     6            29    29.0 
#>  7    13     7            34    33.4 
#>  8    13     8            39    37.8 
#>  9    13     9            39    40.9 
#> 10    13    10            38    42.8 
#> # ℹ 12 more rows
…
